^C:\USERS\ALBERTO\DOCUMENTS\PROJECTS\C++ PROJECTS\HELPBROS\HELPBROS\HB_BOLT.CPP
C:\USERS\ALBERTO\DOCUMENTS\PROJECTS\C++ PROJECTS\HELPBROS\HELPBROS\HB_BOLT.H
C:\USERS\ALBERTO\DOCUMENTS\PROJECTS\C++ PROJECTS\HELPBROS\HELPBROS\HB_GLOBAL.H
C:\SDL-1.2.15\INCLUDE\SDL.H
C:\SDL-1.2.15\INCLUDE\SDL_MAIN.H
C:\SDL-1.2.15\INCLUDE\SDL_STDINC.H
C:\SDL-1.2.15\INCLUDE\SDL_CONFIG.H
C:\SDL-1.2.15\INCLUDE\SDL_PLATFORM.H
C:\SDL-1.2.15\INCLUDE\SDL_CONFIG_WIN32.H
C:\PROGRAM FILES (X86)\MICROSOFT VISUAL STUDIO 11.0\VC\INCLUDE\STDIO.H
C:\PROGRAM FILES (X86)\MICROSOFT VISUAL STUDIO 11.0\VC\INCLUDE\CRTDEFS.H
C:\PROGRAM FILES (X86)\MICROSOFT VISUAL STUDIO 11.0\VC\INCLUDE\SAL.H
C:\PROGRAM FILES (X86)\MICROSOFT VISUAL STUDIO 11.0\VC\INCLUDE\CONCURRENCYSAL.H
C:\PROGRAM FILES (X86)\MICROSOFT VISUAL STUDIO 11.0\VC\INCLUDE\VADEFS.H
C:\PROGRAM FILES (X86)\MICROSOFT VISUAL STUDIO 11.0\VC\INCLUDE\SWPRINTF.INL
C:\PROGRAM FILES (X86)\MICROSOFT VISUAL STUDIO 11.0\VC\INCLUDE\STDLIB.H
C:\PROGRAM FILES (X86)\MICROSOFT VISUAL STUDIO 11.0\VC\INCLUDE\LIMITS.H
C:\PROGRAM FILES (X86)\MICROSOFT VISUAL STUDIO 11.0\VC\INCLUDE\STDDEF.H
C:\PROGRAM FILES (X86)\MICROSOFT VISUAL STUDIO 11.0\VC\INCLUDE\STDARG.H
C:\PROGRAM FILES (X86)\MICROSOFT VISUAL STUDIO 11.0\VC\INCLUDE\STRING.H
C:\PROGRAM FILES (X86)\MICROSOFT VISUAL STUDIO 11.0\VC\INCLUDE\CTYPE.H
C:\SDL-1.2.15\INCLUDE\BEGIN_CODE.H
C:\PROGRAM FILES (X86)\MICROSOFT VISUAL STUDIO 11.0\VC\INCLUDE\MALLOC.H
C:\SDL-1.2.15\INCLUDE\CLOSE_CODE.H
C:\SDL-1.2.15\INCLUDE\SDL_AUDIO.H
C:\SDL-1.2.15\INCLUDE\SDL_ERROR.H
C:\SDL-1.2.15\INCLUDE\SDL_ENDIAN.H
C:\SDL-1.2.15\INCLUDE\SDL_MUTEX.H
C:\SDL-1.2.15\INCLUDE\SDL_THREAD.H
C:\SDL-1.2.15\INCLUDE\SDL_RWOPS.H
C:\SDL-1.2.15\INCLUDE\SDL_CDROM.H
C:\SDL-1.2.15\INCLUDE\SDL_CPUINFO.H
C:\SDL-1.2.15\INCLUDE\SDL_EVENTS.H
C:\SDL-1.2.15\INCLUDE\SDL_ACTIVE.H
C:\SDL-1.2.15\INCLUDE\SDL_KEYBOARD.H
C:\SDL-1.2.15\INCLUDE\SDL_KEYSYM.H
C:\SDL-1.2.15\INCLUDE\SDL_MOUSE.H
C:\SDL-1.2.15\INCLUDE\SDL_VIDEO.H
C:\SDL-1.2.15\INCLUDE\SDL_JOYSTICK.H
C:\SDL-1.2.15\INCLUDE\SDL_QUIT.H
C:\SDL-1.2.15\INCLUDE\SDL_LOADSO.H
C:\SDL-1.2.15\INCLUDE\SDL_TIMER.H
C:\SDL-1.2.15\INCLUDE\SDL_VERSION.H
C:\SDL-1.2.15\INCLUDE\SDL_TTF.H
C:\SDL-1.2.15\INCLUDE\SDL_MIXER.H
C:\SDL-1.2.15\INCLUDE\SDL_TYPES.H
C:\SDL-1.2.15\INCLUDE\SDL_IMAGE.H
C:\PROGRAM FILES (X86)\MICROSOFT VISUAL STUDIO 11.0\VC\INCLUDE\STRING
C:\PROGRAM FILES (X86)\MICROSOFT VISUAL STUDIO 11.0\VC\INCLUDE\ITERATOR
C:\PROGRAM FILES (X86)\MICROSOFT VISUAL STUDIO 11.0\VC\INCLUDE\ISTREAM
C:\PROGRAM FILES (X86)\MICROSOFT VISUAL STUDIO 11.0\VC\INCLUDE\OSTREAM
C:\PROGRAM FILES (X86)\MICROSOFT VISUAL STUDIO 11.0\VC\INCLUDE\IOS
C:\PROGRAM FILES (X86)\MICROSOFT VISUAL STUDIO 11.0\VC\INCLUDE\XLOCNUM
C:\PROGRAM FILES (X86)\MICROSOFT VISUAL STUDIO 11.0\VC\INCLUDE\CLIMITS
C:\PROGRAM FILES (X86)\MICROSOFT VISUAL STUDIO 11.0\VC\INCLUDE\YVALS.H
C:\PROGRAM FILES (X86)\MICROSOFT VISUAL STUDIO 11.0\VC\INCLUDE\XKEYCHECK.H
C:\PROGRAM FILES (X86)\MICROSOFT VISUAL STUDIO 11.0\VC\INCLUDE\USE_ANSI.H
C:\PROGRAM FILES (X86)\MICROSOFT VISUAL STUDIO 11.0\VC\INCLUDE\CMATH
C:\PROGRAM FILES (X86)\MICROSOFT VISUAL STUDIO 11.0\VC\INCLUDE\MATH.H
C:\PROGRAM FILES (X86)\MICROSOFT VISUAL STUDIO 11.0\VC\INCLUDE\XTGMATH.H
C:\PROGRAM FILES (X86)\MICROSOFT VISUAL STUDIO 11.0\VC\INCLUDE\XTR1COMMON
C:\PROGRAM FILES (X86)\MICROSOFT VISUAL STUDIO 11.0\VC\INCLUDE\CSTDIO
C:\PROGRAM FILES (X86)\MICROSOFT VISUAL STUDIO 11.0\VC\INCLUDE\CSTDLIB
C:\PROGRAM FILES (X86)\MICROSOFT VISUAL STUDIO 11.0\VC\INCLUDE\STREAMBUF
C:\PROGRAM FILES (X86)\MICROSOFT VISUAL STUDIO 11.0\VC\INCLUDE\XIOSBASE
C:\PROGRAM FILES (X86)\MICROSOFT VISUAL STUDIO 11.0\VC\INCLUDE\XLOCALE
C:\PROGRAM FILES (X86)\MICROSOFT VISUAL STUDIO 11.0\VC\INCLUDE\CSTRING
C:\PROGRAM FILES (X86)\MICROSOFT VISUAL STUDIO 11.0\VC\INCLUDE\STDEXCEPT
C:\PROGRAM FILES (X86)\MICROSOFT VISUAL STUDIO 11.0\VC\INCLUDE\EXCEPTION
C:\PROGRAM FILES (X86)\MICROSOFT VISUAL STUDIO 11.0\VC\INCLUDE\XSTDDEF
C:\PROGRAM FILES (X86)\MICROSOFT VISUAL STUDIO 11.0\VC\INCLUDE\CSTDDEF
C:\PROGRAM FILES (X86)\MICROSOFT VISUAL STUDIO 11.0\VC\INCLUDE\EH.H
C:\PROGRAM FILES (X86)\MICROSOFT VISUAL STUDIO 11.0\VC\INCLUDE\XSTRING
C:\PROGRAM FILES (X86)\MICROSOFT VISUAL STUDIO 11.0\VC\INCLUDE\XMEMORY0
C:\PROGRAM FILES (X86)\MICROSOFT VISUAL STUDIO 11.0\VC\INCLUDE\LIMITS
C:\PROGRAM FILES (X86)\MICROSOFT VISUAL STUDIO 11.0\VC\INCLUDE\YMATH.H
C:\PROGRAM FILES (X86)\MICROSOFT VISUAL STUDIO 11.0\VC\INCLUDE\CFLOAT
C:\PROGRAM FILES (X86)\MICROSOFT VISUAL STUDIO 11.0\VC\INCLUDE\FLOAT.H
C:\PROGRAM FILES (X86)\MICROSOFT VISUAL STUDIO 11.0\VC\INCLUDE\CRTWRN.H
C:\PROGRAM FILES (X86)\MICROSOFT VISUAL STUDIO 11.0\VC\INCLUDE\CWCHAR
C:\PROGRAM FILES (X86)\MICROSOFT VISUAL STUDIO 11.0\VC\INCLUDE\WCHAR.H
C:\PROGRAM FILES (X86)\MICROSOFT VISUAL STUDIO 11.0\VC\INCLUDE\WTIME.INL
C:\PROGRAM FILES (X86)\MICROSOFT VISUAL STUDIO 11.0\VC\INCLUDE\NEW
C:\PROGRAM FILES (X86)\MICROSOFT VISUAL STUDIO 11.0\VC\INCLUDE\XUTILITY
C:\PROGRAM FILES (X86)\MICROSOFT VISUAL STUDIO 11.0\VC\INCLUDE\UTILITY
C:\PROGRAM FILES (X86)\MICROSOFT VISUAL STUDIO 11.0\VC\INCLUDE\IOSFWD
C:\PROGRAM FILES (X86)\MICROSOFT VISUAL STUDIO 11.0\VC\INCLUDE\CRTDBG.H
C:\PROGRAM FILES (X86)\MICROSOFT VISUAL STUDIO 11.0\VC\INCLUDE\TYPE_TRAITS
C:\PROGRAM FILES (X86)\MICROSOFT VISUAL STUDIO 11.0\VC\INCLUDE\XREFWRAP
C:\PROGRAM FILES (X86)\MICROSOFT VISUAL STUDIO 11.0\VC\INCLUDE\XATOMIC0.H
C:\PROGRAM FILES (X86)\MICROSOFT VISUAL STUDIO 11.0\VC\INCLUDE\INTRIN.H
C:\PROGRAM FILES (X86)\MICROSOFT VISUAL STUDIO 11.0\VC\INCLUDE\SETJMP.H
C:\PROGRAM FILES (X86)\MICROSOFT VISUAL STUDIO 11.0\VC\INCLUDE\IMMINTRIN.H
C:\PROGRAM FILES (X86)\MICROSOFT VISUAL STUDIO 11.0\VC\INCLUDE\WMMINTRIN.H
C:\PROGRAM FILES (X86)\MICROSOFT VISUAL STUDIO 11.0\VC\INCLUDE\NMMINTRIN.H
C:\PROGRAM FILES (X86)\MICROSOFT VISUAL STUDIO 11.0\VC\INCLUDE\SMMINTRIN.H
C:\PROGRAM FILES (X86)\MICROSOFT VISUAL STUDIO 11.0\VC\INCLUDE\TMMINTRIN.H
C:\PROGRAM FILES (X86)\MICROSOFT VISUAL STUDIO 11.0\VC\INCLUDE\PMMINTRIN.H
C:\PROGRAM FILES (X86)\MICROSOFT VISUAL STUDIO 11.0\VC\INCLUDE\EMMINTRIN.H
C:\PROGRAM FILES (X86)\MICROSOFT VISUAL STUDIO 11.0\VC\INCLUDE\XMMINTRIN.H
C:\PROGRAM FILES (X86)\MICROSOFT VISUAL STUDIO 11.0\VC\INCLUDE\MMINTRIN.H
C:\PROGRAM FILES (X86)\MICROSOFT VISUAL STUDIO 11.0\VC\INCLUDE\AMMINTRIN.H
C:\PROGRAM FILES (X86)\MICROSOFT VISUAL STUDIO 11.0\VC\INCLUDE\MM3DNOW.H
C:\PROGRAM FILES (X86)\MICROSOFT VISUAL STUDIO 11.0\VC\INCLUDE\TYPEINFO
C:\PROGRAM FILES (X86)\MICROSOFT VISUAL STUDIO 11.0\VC\INCLUDE\XLOCINFO
C:\PROGRAM FILES (X86)\MICROSOFT VISUAL STUDIO 11.0\VC\INCLUDE\XLOCINFO.H
C:\PROGRAM FILES (X86)\MICROSOFT VISUAL STUDIO 11.0\VC\INCLUDE\LOCALE.H
C:\PROGRAM FILES (X86)\MICROSOFT VISUAL STUDIO 11.0\VC\INCLUDE\XDEBUG
C:\PROGRAM FILES (X86)\MICROSOFT VISUAL STUDIO 11.0\VC\INCLUDE\XFACET
C:\PROGRAM FILES (X86)\MICROSOFT VISUAL STUDIO 11.0\VC\INCLUDE\SYSTEM_ERROR
C:\PROGRAM FILES (X86)\MICROSOFT VISUAL STUDIO 11.0\VC\INCLUDE\CERRNO
C:\PROGRAM FILES (X86)\MICROSOFT VISUAL STUDIO 11.0\VC\INCLUDE\ERRNO.H
C:\PROGRAM FILES (X86)\MICROSOFT VISUAL STUDIO 11.0\VC\INCLUDE\SHARE.H
C:\USERS\ALBERTO\DOCUMENTS\PROJECTS\C++ PROJECTS\HELPBROS\HELPBROS\HB_ENTITY.H
C:\PROGRAM FILES (X86)\MICROSOFT VISUAL STUDIO 11.0\VC\INCLUDE\VECTOR
C:\PROGRAM FILES (X86)\MICROSOFT VISUAL STUDIO 11.0\VC\INCLUDE\XMEMORY
C:\USERS\ALBERTO\DOCUMENTS\PROJECTS\C++ PROJECTS\HELPBROS\HELPBROS\HB_SURFACE.H
C:\USERS\ALBERTO\DOCUMENTS\PROJECTS\C++ PROJECTS\HELPBROS\HELPBROS\HB_ANIMATION.H
C:\USERS\ALBERTO\DOCUMENTS\PROJECTS\C++ PROJECTS\HELPBROS\HELPBROS\HB_TIMER.H
C:\USERS\ALBERTO\DOCUMENTS\PROJECTS\C++ PROJECTS\HELPBROS\HELPBROS\HB_CAMERA.H
C:\USERS\ALBERTO\DOCUMENTS\PROJECTS\C++ PROJECTS\HELPBROS\HELPBROS\HB_MAP.H
C:\USERS\ALBERTO\DOCUMENTS\PROJECTS\C++ PROJECTS\HELPBROS\HELPBROS\HB_TILE.H
C:\USERS\ALBERTO\DOCUMENTS\PROJECTS\C++ PROJECTS\HELPBROS\HELPBROS\HB_BACKGROUND.H
C:\USERS\ALBERTO\DOCUMENTS\PROJECTS\C++ PROJECTS\HELPBROS\HELPBROS\TMXPARSER\TMXLOADER.H
C:\PROGRAM FILES (X86)\MICROSOFT VISUAL STUDIO 11.0\VC\INCLUDE\IOSTREAM
C:\PROGRAM FILES (X86)\MICROSOFT VISUAL STUDIO 11.0\VC\INCLUDE\FSTREAM
C:\USERS\ALBERTO\DOCUMENTS\PROJECTS\C++ PROJECTS\HELPBROS\HELPBROS\TMXPARSER\BASE64.H
C:\USERS\ALBERTO\DOCUMENTS\PROJECTS\C++ PROJECTS\HELPBROS\HELPBROS\TMXPARSER\TINYXML\TINYXML.H
C:\PROGRAM FILES (X86)\MICROSOFT VISUAL STUDIO 11.0\VC\INCLUDE\ASSERT.H
C:\USERS\ALBERTO\DOCUMENTS\PROJECTS\C++ PROJECTS\HELPBROS\HELPBROS\TMXPARSER\TINYXML\TINYSTR.H
C:\USERS\ALBERTO\DOCUMENTS\PROJECTS\C++ PROJECTS\HELPBROS\HELPBROS\HB_ANIMATIONMANAGER.H
C:\PROGRAM FILES (X86)\MICROSOFT VISUAL STUDIO 11.0\VC\BIN\1033\CLUI.DLL
C:\WINDOWS\GLOBALIZATION\SORTING\SORTDEFAULT.NLS
C:\WINDOWS\SYSTEM32\TZRES.DLL
C:\USERS\ALBERTO\DOCUMENTS\PROJECTS\C++ PROJECTS\HELPBROS\HELPBROS\HB_PLAYER.H
C:\USERS\ALBERTO\DOCUMENTS\PROJECTS\C++ PROJECTS\HELPBROS\HELPBROS\HB_BULLET.H
C:\PROGRAM FILES (X86)\MICROSOFT VISUAL STUDIO 11.0\COMMON7\IDE\MSPDBSRV.EXE
^C:\USERS\ALBERTO\DOCUMENTS\PROJECTS\C++ PROJECTS\HELPBROS\HELPBROS\HB_ENEMYGREEN.CPP
C:\USERS\ALBERTO\DOCUMENTS\PROJECTS\C++ PROJECTS\HELPBROS\HELPBROS\HB_ENEMYGREEN.H
C:\USERS\ALBERTO\DOCUMENTS\PROJECTS\C++ PROJECTS\HELPBROS\HELPBROS\HB_GLOBAL.H
C:\SDL-1.2.15\INCLUDE\SDL.H
C:\SDL-1.2.15\INCLUDE\SDL_MAIN.H
C:\SDL-1.2.15\INCLUDE\SDL_STDINC.H
C:\SDL-1.2.15\INCLUDE\SDL_CONFIG.H
C:\SDL-1.2.15\INCLUDE\SDL_PLATFORM.H
C:\SDL-1.2.15\INCLUDE\SDL_CONFIG_WIN32.H
C:\PROGRAM FILES (X86)\MICROSOFT VISUAL STUDIO 11.0\VC\INCLUDE\STDIO.H
C:\PROGRAM FILES (X86)\MICROSOFT VISUAL STUDIO 11.0\VC\INCLUDE\CRTDEFS.H
C:\PROGRAM FILES (X86)\MICROSOFT VISUAL STUDIO 11.0\VC\INCLUDE\SAL.H
C:\PROGRAM FILES (X86)\MICROSOFT VISUAL STUDIO 11.0\VC\INCLUDE\CONCURRENCYSAL.H
C:\PROGRAM FILES (X86)\MICROSOFT VISUAL STUDIO 11.0\VC\INCLUDE\VADEFS.H
C:\PROGRAM FILES (X86)\MICROSOFT VISUAL STUDIO 11.0\VC\INCLUDE\SWPRINTF.INL
C:\PROGRAM FILES (X86)\MICROSOFT VISUAL STUDIO 11.0\VC\INCLUDE\STDLIB.H
C:\PROGRAM FILES (X86)\MICROSOFT VISUAL STUDIO 11.0\VC\INCLUDE\LIMITS.H
C:\PROGRAM FILES (X86)\MICROSOFT VISUAL STUDIO 11.0\VC\INCLUDE\STDDEF.H
C:\PROGRAM FILES (X86)\MICROSOFT VISUAL STUDIO 11.0\VC\INCLUDE\STDARG.H
C:\PROGRAM FILES (X86)\MICROSOFT VISUAL STUDIO 11.0\VC\INCLUDE\STRING.H
C:\PROGRAM FILES (X86)\MICROSOFT VISUAL STUDIO 11.0\VC\INCLUDE\CTYPE.H
C:\SDL-1.2.15\INCLUDE\BEGIN_CODE.H
C:\PROGRAM FILES (X86)\MICROSOFT VISUAL STUDIO 11.0\VC\INCLUDE\MALLOC.H
C:\SDL-1.2.15\INCLUDE\CLOSE_CODE.H
C:\SDL-1.2.15\INCLUDE\SDL_AUDIO.H
C:\SDL-1.2.15\INCLUDE\SDL_ERROR.H
C:\SDL-1.2.15\INCLUDE\SDL_ENDIAN.H
C:\SDL-1.2.15\INCLUDE\SDL_MUTEX.H
C:\SDL-1.2.15\INCLUDE\SDL_THREAD.H
C:\SDL-1.2.15\INCLUDE\SDL_RWOPS.H
C:\SDL-1.2.15\INCLUDE\SDL_CDROM.H
C:\SDL-1.2.15\INCLUDE\SDL_CPUINFO.H
C:\SDL-1.2.15\INCLUDE\SDL_EVENTS.H
C:\SDL-1.2.15\INCLUDE\SDL_ACTIVE.H
C:\SDL-1.2.15\INCLUDE\SDL_KEYBOARD.H
C:\SDL-1.2.15\INCLUDE\SDL_KEYSYM.H
C:\SDL-1.2.15\INCLUDE\SDL_MOUSE.H
C:\SDL-1.2.15\INCLUDE\SDL_VIDEO.H
C:\SDL-1.2.15\INCLUDE\SDL_JOYSTICK.H
C:\SDL-1.2.15\INCLUDE\SDL_QUIT.H
C:\SDL-1.2.15\INCLUDE\SDL_LOADSO.H
C:\SDL-1.2.15\INCLUDE\SDL_TIMER.H
C:\SDL-1.2.15\INCLUDE\SDL_VERSION.H
C:\SDL-1.2.15\INCLUDE\SDL_TTF.H
C:\SDL-1.2.15\INCLUDE\SDL_MIXER.H
C:\SDL-1.2.15\INCLUDE\SDL_TYPES.H
C:\SDL-1.2.15\INCLUDE\SDL_IMAGE.H
C:\PROGRAM FILES (X86)\MICROSOFT VISUAL STUDIO 11.0\VC\INCLUDE\STRING
C:\PROGRAM FILES (X86)\MICROSOFT VISUAL STUDIO 11.0\VC\INCLUDE\ITERATOR
C:\PROGRAM FILES (X86)\MICROSOFT VISUAL STUDIO 11.0\VC\INCLUDE\ISTREAM
C:\PROGRAM FILES (X86)\MICROSOFT VISUAL STUDIO 11.0\VC\INCLUDE\OSTREAM
C:\PROGRAM FILES (X86)\MICROSOFT VISUAL STUDIO 11.0\VC\INCLUDE\IOS
C:\PROGRAM FILES (X86)\MICROSOFT VISUAL STUDIO 11.0\VC\INCLUDE\XLOCNUM
C:\PROGRAM FILES (X86)\MICROSOFT VISUAL STUDIO 11.0\VC\INCLUDE\CLIMITS
C:\PROGRAM FILES (X86)\MICROSOFT VISUAL STUDIO 11.0\VC\INCLUDE\YVALS.H
C:\PROGRAM FILES (X86)\MICROSOFT VISUAL STUDIO 11.0\VC\INCLUDE\XKEYCHECK.H
C:\PROGRAM FILES (X86)\MICROSOFT VISUAL STUDIO 11.0\VC\INCLUDE\USE_ANSI.H
C:\PROGRAM FILES (X86)\MICROSOFT VISUAL STUDIO 11.0\VC\INCLUDE\CMATH
C:\PROGRAM FILES (X86)\MICROSOFT VISUAL STUDIO 11.0\VC\INCLUDE\MATH.H
C:\PROGRAM FILES (X86)\MICROSOFT VISUAL STUDIO 11.0\VC\INCLUDE\XTGMATH.H
C:\PROGRAM FILES (X86)\MICROSOFT VISUAL STUDIO 11.0\VC\INCLUDE\XTR1COMMON
C:\PROGRAM FILES (X86)\MICROSOFT VISUAL STUDIO 11.0\VC\INCLUDE\CSTDIO
C:\PROGRAM FILES (X86)\MICROSOFT VISUAL STUDIO 11.0\VC\INCLUDE\CSTDLIB
C:\PROGRAM FILES (X86)\MICROSOFT VISUAL STUDIO 11.0\VC\INCLUDE\STREAMBUF
C:\PROGRAM FILES (X86)\MICROSOFT VISUAL STUDIO 11.0\VC\INCLUDE\XIOSBASE
C:\PROGRAM FILES (X86)\MICROSOFT VISUAL STUDIO 11.0\VC\INCLUDE\XLOCALE
C:\PROGRAM FILES (X86)\MICROSOFT VISUAL STUDIO 11.0\VC\INCLUDE\CSTRING
C:\PROGRAM FILES (X86)\MICROSOFT VISUAL STUDIO 11.0\VC\INCLUDE\STDEXCEPT
C:\PROGRAM FILES (X86)\MICROSOFT VISUAL STUDIO 11.0\VC\INCLUDE\EXCEPTION
C:\PROGRAM FILES (X86)\MICROSOFT VISUAL STUDIO 11.0\VC\INCLUDE\XSTDDEF
C:\PROGRAM FILES (X86)\MICROSOFT VISUAL STUDIO 11.0\VC\INCLUDE\CSTDDEF
C:\PROGRAM FILES (X86)\MICROSOFT VISUAL STUDIO 11.0\VC\INCLUDE\EH.H
C:\PROGRAM FILES (X86)\MICROSOFT VISUAL STUDIO 11.0\VC\INCLUDE\XSTRING
C:\PROGRAM FILES (X86)\MICROSOFT VISUAL STUDIO 11.0\VC\INCLUDE\XMEMORY0
C:\PROGRAM FILES (X86)\MICROSOFT VISUAL STUDIO 11.0\VC\INCLUDE\LIMITS
C:\PROGRAM FILES (X86)\MICROSOFT VISUAL STUDIO 11.0\VC\INCLUDE\YMATH.H
C:\PROGRAM FILES (X86)\MICROSOFT VISUAL STUDIO 11.0\VC\INCLUDE\CFLOAT
C:\PROGRAM FILES (X86)\MICROSOFT VISUAL STUDIO 11.0\VC\INCLUDE\FLOAT.H
C:\PROGRAM FILES (X86)\MICROSOFT VISUAL STUDIO 11.0\VC\INCLUDE\CRTWRN.H
C:\PROGRAM FILES (X86)\MICROSOFT VISUAL STUDIO 11.0\VC\INCLUDE\CWCHAR
C:\PROGRAM FILES (X86)\MICROSOFT VISUAL STUDIO 11.0\VC\INCLUDE\WCHAR.H
C:\PROGRAM FILES (X86)\MICROSOFT VISUAL STUDIO 11.0\VC\INCLUDE\WTIME.INL
C:\PROGRAM FILES (X86)\MICROSOFT VISUAL STUDIO 11.0\VC\INCLUDE\NEW
C:\PROGRAM FILES (X86)\MICROSOFT VISUAL STUDIO 11.0\VC\INCLUDE\XUTILITY
C:\PROGRAM FILES (X86)\MICROSOFT VISUAL STUDIO 11.0\VC\INCLUDE\UTILITY
C:\PROGRAM FILES (X86)\MICROSOFT VISUAL STUDIO 11.0\VC\INCLUDE\IOSFWD
C:\PROGRAM FILES (X86)\MICROSOFT VISUAL STUDIO 11.0\VC\INCLUDE\CRTDBG.H
C:\PROGRAM FILES (X86)\MICROSOFT VISUAL STUDIO 11.0\VC\INCLUDE\TYPE_TRAITS
C:\PROGRAM FILES (X86)\MICROSOFT VISUAL STUDIO 11.0\VC\INCLUDE\XREFWRAP
C:\PROGRAM FILES (X86)\MICROSOFT VISUAL STUDIO 11.0\VC\INCLUDE\XATOMIC0.H
C:\PROGRAM FILES (X86)\MICROSOFT VISUAL STUDIO 11.0\VC\INCLUDE\INTRIN.H
C:\PROGRAM FILES (X86)\MICROSOFT VISUAL STUDIO 11.0\VC\INCLUDE\SETJMP.H
C:\PROGRAM FILES (X86)\MICROSOFT VISUAL STUDIO 11.0\VC\INCLUDE\IMMINTRIN.H
C:\PROGRAM FILES (X86)\MICROSOFT VISUAL STUDIO 11.0\VC\INCLUDE\WMMINTRIN.H
C:\PROGRAM FILES (X86)\MICROSOFT VISUAL STUDIO 11.0\VC\INCLUDE\NMMINTRIN.H
C:\PROGRAM FILES (X86)\MICROSOFT VISUAL STUDIO 11.0\VC\INCLUDE\SMMINTRIN.H
C:\PROGRAM FILES (X86)\MICROSOFT VISUAL STUDIO 11.0\VC\INCLUDE\TMMINTRIN.H
C:\PROGRAM FILES (X86)\MICROSOFT VISUAL STUDIO 11.0\VC\INCLUDE\PMMINTRIN.H
C:\PROGRAM FILES (X86)\MICROSOFT VISUAL STUDIO 11.0\VC\INCLUDE\EMMINTRIN.H
C:\PROGRAM FILES (X86)\MICROSOFT VISUAL STUDIO 11.0\VC\INCLUDE\XMMINTRIN.H
C:\PROGRAM FILES (X86)\MICROSOFT VISUAL STUDIO 11.0\VC\INCLUDE\MMINTRIN.H
C:\PROGRAM FILES (X86)\MICROSOFT VISUAL STUDIO 11.0\VC\INCLUDE\AMMINTRIN.H
C:\PROGRAM FILES (X86)\MICROSOFT VISUAL STUDIO 11.0\VC\INCLUDE\MM3DNOW.H
C:\PROGRAM FILES (X86)\MICROSOFT VISUAL STUDIO 11.0\VC\INCLUDE\TYPEINFO
C:\PROGRAM FILES (X86)\MICROSOFT VISUAL STUDIO 11.0\VC\INCLUDE\XLOCINFO
C:\PROGRAM FILES (X86)\MICROSOFT VISUAL STUDIO 11.0\VC\INCLUDE\XLOCINFO.H
C:\PROGRAM FILES (X86)\MICROSOFT VISUAL STUDIO 11.0\VC\INCLUDE\LOCALE.H
C:\PROGRAM FILES (X86)\MICROSOFT VISUAL STUDIO 11.0\VC\INCLUDE\XDEBUG
C:\PROGRAM FILES (X86)\MICROSOFT VISUAL STUDIO 11.0\VC\INCLUDE\XFACET
C:\PROGRAM FILES (X86)\MICROSOFT VISUAL STUDIO 11.0\VC\INCLUDE\SYSTEM_ERROR
C:\PROGRAM FILES (X86)\MICROSOFT VISUAL STUDIO 11.0\VC\INCLUDE\CERRNO
C:\PROGRAM FILES (X86)\MICROSOFT VISUAL STUDIO 11.0\VC\INCLUDE\ERRNO.H
C:\PROGRAM FILES (X86)\MICROSOFT VISUAL STUDIO 11.0\VC\INCLUDE\SHARE.H
C:\USERS\ALBERTO\DOCUMENTS\PROJECTS\C++ PROJECTS\HELPBROS\HELPBROS\HB_ENTITY.H
C:\PROGRAM FILES (X86)\MICROSOFT VISUAL STUDIO 11.0\VC\INCLUDE\VECTOR
C:\PROGRAM FILES (X86)\MICROSOFT VISUAL STUDIO 11.0\VC\INCLUDE\XMEMORY
C:\USERS\ALBERTO\DOCUMENTS\PROJECTS\C++ PROJECTS\HELPBROS\HELPBROS\HB_SURFACE.H
C:\USERS\ALBERTO\DOCUMENTS\PROJECTS\C++ PROJECTS\HELPBROS\HELPBROS\HB_ANIMATION.H
C:\USERS\ALBERTO\DOCUMENTS\PROJECTS\C++ PROJECTS\HELPBROS\HELPBROS\HB_TIMER.H
C:\USERS\ALBERTO\DOCUMENTS\PROJECTS\C++ PROJECTS\HELPBROS\HELPBROS\HB_CAMERA.H
C:\USERS\ALBERTO\DOCUMENTS\PROJECTS\C++ PROJECTS\HELPBROS\HELPBROS\HB_MAP.H
C:\USERS\ALBERTO\DOCUMENTS\PROJECTS\C++ PROJECTS\HELPBROS\HELPBROS\HB_TILE.H
C:\USERS\ALBERTO\DOCUMENTS\PROJECTS\C++ PROJECTS\HELPBROS\HELPBROS\HB_BACKGROUND.H
C:\USERS\ALBERTO\DOCUMENTS\PROJECTS\C++ PROJECTS\HELPBROS\HELPBROS\TMXPARSER\TMXLOADER.H
C:\PROGRAM FILES (X86)\MICROSOFT VISUAL STUDIO 11.0\VC\INCLUDE\IOSTREAM
C:\PROGRAM FILES (X86)\MICROSOFT VISUAL STUDIO 11.0\VC\INCLUDE\FSTREAM
C:\USERS\ALBERTO\DOCUMENTS\PROJECTS\C++ PROJECTS\HELPBROS\HELPBROS\TMXPARSER\BASE64.H
C:\USERS\ALBERTO\DOCUMENTS\PROJECTS\C++ PROJECTS\HELPBROS\HELPBROS\TMXPARSER\TINYXML\TINYXML.H
C:\PROGRAM FILES (X86)\MICROSOFT VISUAL STUDIO 11.0\VC\INCLUDE\ASSERT.H
C:\USERS\ALBERTO\DOCUMENTS\PROJECTS\C++ PROJECTS\HELPBROS\HELPBROS\TMXPARSER\TINYXML\TINYSTR.H
C:\USERS\ALBERTO\DOCUMENTS\PROJECTS\C++ PROJECTS\HELPBROS\HELPBROS\HB_ANIMATIONMANAGER.H
C:\PROGRAM FILES (X86)\MICROSOFT VISUAL STUDIO 11.0\VC\INCLUDE\CTIME
C:\PROGRAM FILES (X86)\MICROSOFT VISUAL STUDIO 11.0\VC\INCLUDE\TIME.H
C:\PROGRAM FILES (X86)\MICROSOFT VISUAL STUDIO 11.0\VC\INCLUDE\TIME.INL
C:\PROGRAM FILES (X86)\MICROSOFT VISUAL STUDIO 11.0\VC\BIN\1033\CLUI.DLL
C:\WINDOWS\GLOBALIZATION\SORTING\SORTDEFAULT.NLS
C:\WINDOWS\SYSTEM32\TZRES.DLL
C:\PROGRAM FILES (X86)\MICROSOFT VISUAL STUDIO 11.0\COMMON7\IDE\MSPDBSRV.EXE
^C:\USERS\ALBERTO\DOCUMENTS\PROJECTS\C++ PROJECTS\HELPBROS\HELPBROS\HB_ENEMYBOT.CPP
C:\USERS\ALBERTO\DOCUMENTS\PROJECTS\C++ PROJECTS\HELPBROS\HELPBROS\HB_ENEMYBOT.H
C:\USERS\ALBERTO\DOCUMENTS\PROJECTS\C++ PROJECTS\HELPBROS\HELPBROS\HB_GLOBAL.H
C:\SDL-1.2.15\INCLUDE\SDL.H
C:\SDL-1.2.15\INCLUDE\SDL_MAIN.H
C:\SDL-1.2.15\INCLUDE\SDL_STDINC.H
C:\SDL-1.2.15\INCLUDE\SDL_CONFIG.H
C:\SDL-1.2.15\INCLUDE\SDL_PLATFORM.H
C:\SDL-1.2.15\INCLUDE\SDL_CONFIG_WIN32.H
C:\PROGRAM FILES (X86)\MICROSOFT VISUAL STUDIO 11.0\VC\INCLUDE\STDIO.H
C:\PROGRAM FILES (X86)\MICROSOFT VISUAL STUDIO 11.0\VC\INCLUDE\CRTDEFS.H
C:\PROGRAM FILES (X86)\MICROSOFT VISUAL STUDIO 11.0\VC\INCLUDE\SAL.H
C:\PROGRAM FILES (X86)\MICROSOFT VISUAL STUDIO 11.0\VC\INCLUDE\CONCURRENCYSAL.H
C:\PROGRAM FILES (X86)\MICROSOFT VISUAL STUDIO 11.0\VC\INCLUDE\VADEFS.H
C:\PROGRAM FILES (X86)\MICROSOFT VISUAL STUDIO 11.0\VC\INCLUDE\SWPRINTF.INL
C:\PROGRAM FILES (X86)\MICROSOFT VISUAL STUDIO 11.0\VC\INCLUDE\STDLIB.H
C:\PROGRAM FILES (X86)\MICROSOFT VISUAL STUDIO 11.0\VC\INCLUDE\LIMITS.H
C:\PROGRAM FILES (X86)\MICROSOFT VISUAL STUDIO 11.0\VC\INCLUDE\STDDEF.H
C:\PROGRAM FILES (X86)\MICROSOFT VISUAL STUDIO 11.0\VC\INCLUDE\STDARG.H
C:\PROGRAM FILES (X86)\MICROSOFT VISUAL STUDIO 11.0\VC\INCLUDE\STRING.H
C:\PROGRAM FILES (X86)\MICROSOFT VISUAL STUDIO 11.0\VC\INCLUDE\CTYPE.H
C:\SDL-1.2.15\INCLUDE\BEGIN_CODE.H
C:\PROGRAM FILES (X86)\MICROSOFT VISUAL STUDIO 11.0\VC\INCLUDE\MALLOC.H
C:\SDL-1.2.15\INCLUDE\CLOSE_CODE.H
C:\SDL-1.2.15\INCLUDE\SDL_AUDIO.H
C:\SDL-1.2.15\INCLUDE\SDL_ERROR.H
C:\SDL-1.2.15\INCLUDE\SDL_ENDIAN.H
C:\SDL-1.2.15\INCLUDE\SDL_MUTEX.H
C:\SDL-1.2.15\INCLUDE\SDL_THREAD.H
C:\SDL-1.2.15\INCLUDE\SDL_RWOPS.H
C:\SDL-1.2.15\INCLUDE\SDL_CDROM.H
C:\SDL-1.2.15\INCLUDE\SDL_CPUINFO.H
C:\SDL-1.2.15\INCLUDE\SDL_EVENTS.H
C:\SDL-1.2.15\INCLUDE\SDL_ACTIVE.H
C:\SDL-1.2.15\INCLUDE\SDL_KEYBOARD.H
C:\SDL-1.2.15\INCLUDE\SDL_KEYSYM.H
C:\SDL-1.2.15\INCLUDE\SDL_MOUSE.H
C:\SDL-1.2.15\INCLUDE\SDL_VIDEO.H
C:\SDL-1.2.15\INCLUDE\SDL_JOYSTICK.H
C:\SDL-1.2.15\INCLUDE\SDL_QUIT.H
C:\SDL-1.2.15\INCLUDE\SDL_LOADSO.H
C:\SDL-1.2.15\INCLUDE\SDL_TIMER.H
C:\SDL-1.2.15\INCLUDE\SDL_VERSION.H
C:\SDL-1.2.15\INCLUDE\SDL_TTF.H
C:\SDL-1.2.15\INCLUDE\SDL_MIXER.H
C:\SDL-1.2.15\INCLUDE\SDL_TYPES.H
C:\SDL-1.2.15\INCLUDE\SDL_IMAGE.H
C:\PROGRAM FILES (X86)\MICROSOFT VISUAL STUDIO 11.0\VC\INCLUDE\STRING
C:\PROGRAM FILES (X86)\MICROSOFT VISUAL STUDIO 11.0\VC\INCLUDE\ITERATOR
C:\PROGRAM FILES (X86)\MICROSOFT VISUAL STUDIO 11.0\VC\INCLUDE\ISTREAM
C:\PROGRAM FILES (X86)\MICROSOFT VISUAL STUDIO 11.0\VC\INCLUDE\OSTREAM
C:\PROGRAM FILES (X86)\MICROSOFT VISUAL STUDIO 11.0\VC\INCLUDE\IOS
C:\PROGRAM FILES (X86)\MICROSOFT VISUAL STUDIO 11.0\VC\INCLUDE\XLOCNUM
C:\PROGRAM FILES (X86)\MICROSOFT VISUAL STUDIO 11.0\VC\INCLUDE\CLIMITS
C:\PROGRAM FILES (X86)\MICROSOFT VISUAL STUDIO 11.0\VC\INCLUDE\YVALS.H
C:\PROGRAM FILES (X86)\MICROSOFT VISUAL STUDIO 11.0\VC\INCLUDE\XKEYCHECK.H
C:\PROGRAM FILES (X86)\MICROSOFT VISUAL STUDIO 11.0\VC\INCLUDE\USE_ANSI.H
C:\PROGRAM FILES (X86)\MICROSOFT VISUAL STUDIO 11.0\VC\INCLUDE\CMATH
C:\PROGRAM FILES (X86)\MICROSOFT VISUAL STUDIO 11.0\VC\INCLUDE\MATH.H
C:\PROGRAM FILES (X86)\MICROSOFT VISUAL STUDIO 11.0\VC\INCLUDE\XTGMATH.H
C:\PROGRAM FILES (X86)\MICROSOFT VISUAL STUDIO 11.0\VC\INCLUDE\XTR1COMMON
C:\PROGRAM FILES (X86)\MICROSOFT VISUAL STUDIO 11.0\VC\INCLUDE\CSTDIO
C:\PROGRAM FILES (X86)\MICROSOFT VISUAL STUDIO 11.0\VC\INCLUDE\CSTDLIB
C:\PROGRAM FILES (X86)\MICROSOFT VISUAL STUDIO 11.0\VC\INCLUDE\STREAMBUF
C:\PROGRAM FILES (X86)\MICROSOFT VISUAL STUDIO 11.0\VC\INCLUDE\XIOSBASE
C:\PROGRAM FILES (X86)\MICROSOFT VISUAL STUDIO 11.0\VC\INCLUDE\XLOCALE
C:\PROGRAM FILES (X86)\MICROSOFT VISUAL STUDIO 11.0\VC\INCLUDE\CSTRING
C:\PROGRAM FILES (X86)\MICROSOFT VISUAL STUDIO 11.0\VC\INCLUDE\STDEXCEPT
C:\PROGRAM FILES (X86)\MICROSOFT VISUAL STUDIO 11.0\VC\INCLUDE\EXCEPTION
C:\PROGRAM FILES (X86)\MICROSOFT VISUAL STUDIO 11.0\VC\INCLUDE\XSTDDEF
C:\PROGRAM FILES (X86)\MICROSOFT VISUAL STUDIO 11.0\VC\INCLUDE\CSTDDEF
C:\PROGRAM FILES (X86)\MICROSOFT VISUAL STUDIO 11.0\VC\INCLUDE\EH.H
C:\PROGRAM FILES (X86)\MICROSOFT VISUAL STUDIO 11.0\VC\INCLUDE\XSTRING
C:\PROGRAM FILES (X86)\MICROSOFT VISUAL STUDIO 11.0\VC\INCLUDE\XMEMORY0
C:\PROGRAM FILES (X86)\MICROSOFT VISUAL STUDIO 11.0\VC\INCLUDE\LIMITS
C:\PROGRAM FILES (X86)\MICROSOFT VISUAL STUDIO 11.0\VC\INCLUDE\YMATH.H
C:\PROGRAM FILES (X86)\MICROSOFT VISUAL STUDIO 11.0\VC\INCLUDE\CFLOAT
C:\PROGRAM FILES (X86)\MICROSOFT VISUAL STUDIO 11.0\VC\INCLUDE\FLOAT.H
C:\PROGRAM FILES (X86)\MICROSOFT VISUAL STUDIO 11.0\VC\INCLUDE\CRTWRN.H
C:\PROGRAM FILES (X86)\MICROSOFT VISUAL STUDIO 11.0\VC\INCLUDE\CWCHAR
C:\PROGRAM FILES (X86)\MICROSOFT VISUAL STUDIO 11.0\VC\INCLUDE\WCHAR.H
C:\PROGRAM FILES (X86)\MICROSOFT VISUAL STUDIO 11.0\VC\INCLUDE\WTIME.INL
C:\PROGRAM FILES (X86)\MICROSOFT VISUAL STUDIO 11.0\VC\INCLUDE\NEW
C:\PROGRAM FILES (X86)\MICROSOFT VISUAL STUDIO 11.0\VC\INCLUDE\XUTILITY
C:\PROGRAM FILES (X86)\MICROSOFT VISUAL STUDIO 11.0\VC\INCLUDE\UTILITY
C:\PROGRAM FILES (X86)\MICROSOFT VISUAL STUDIO 11.0\VC\INCLUDE\IOSFWD
C:\PROGRAM FILES (X86)\MICROSOFT VISUAL STUDIO 11.0\VC\INCLUDE\CRTDBG.H
C:\PROGRAM FILES (X86)\MICROSOFT VISUAL STUDIO 11.0\VC\INCLUDE\TYPE_TRAITS
C:\PROGRAM FILES (X86)\MICROSOFT VISUAL STUDIO 11.0\VC\INCLUDE\XREFWRAP
C:\PROGRAM FILES (X86)\MICROSOFT VISUAL STUDIO 11.0\VC\INCLUDE\XATOMIC0.H
C:\PROGRAM FILES (X86)\MICROSOFT VISUAL STUDIO 11.0\VC\INCLUDE\INTRIN.H
C:\PROGRAM FILES (X86)\MICROSOFT VISUAL STUDIO 11.0\VC\INCLUDE\SETJMP.H
C:\PROGRAM FILES (X86)\MICROSOFT VISUAL STUDIO 11.0\VC\INCLUDE\IMMINTRIN.H
C:\PROGRAM FILES (X86)\MICROSOFT VISUAL STUDIO 11.0\VC\INCLUDE\WMMINTRIN.H
C:\PROGRAM FILES (X86)\MICROSOFT VISUAL STUDIO 11.0\VC\INCLUDE\NMMINTRIN.H
C:\PROGRAM FILES (X86)\MICROSOFT VISUAL STUDIO 11.0\VC\INCLUDE\SMMINTRIN.H
C:\PROGRAM FILES (X86)\MICROSOFT VISUAL STUDIO 11.0\VC\INCLUDE\TMMINTRIN.H
C:\PROGRAM FILES (X86)\MICROSOFT VISUAL STUDIO 11.0\VC\INCLUDE\PMMINTRIN.H
C:\PROGRAM FILES (X86)\MICROSOFT VISUAL STUDIO 11.0\VC\INCLUDE\EMMINTRIN.H
C:\PROGRAM FILES (X86)\MICROSOFT VISUAL STUDIO 11.0\VC\INCLUDE\XMMINTRIN.H
C:\PROGRAM FILES (X86)\MICROSOFT VISUAL STUDIO 11.0\VC\INCLUDE\MMINTRIN.H
C:\PROGRAM FILES (X86)\MICROSOFT VISUAL STUDIO 11.0\VC\INCLUDE\AMMINTRIN.H
C:\PROGRAM FILES (X86)\MICROSOFT VISUAL STUDIO 11.0\VC\INCLUDE\MM3DNOW.H
C:\PROGRAM FILES (X86)\MICROSOFT VISUAL STUDIO 11.0\VC\INCLUDE\TYPEINFO
C:\PROGRAM FILES (X86)\MICROSOFT VISUAL STUDIO 11.0\VC\INCLUDE\XLOCINFO
C:\PROGRAM FILES (X86)\MICROSOFT VISUAL STUDIO 11.0\VC\INCLUDE\XLOCINFO.H
C:\PROGRAM FILES (X86)\MICROSOFT VISUAL STUDIO 11.0\VC\INCLUDE\LOCALE.H
C:\PROGRAM FILES (X86)\MICROSOFT VISUAL STUDIO 11.0\VC\INCLUDE\XDEBUG
C:\PROGRAM FILES (X86)\MICROSOFT VISUAL STUDIO 11.0\VC\INCLUDE\XFACET
C:\PROGRAM FILES (X86)\MICROSOFT VISUAL STUDIO 11.0\VC\INCLUDE\SYSTEM_ERROR
C:\PROGRAM FILES (X86)\MICROSOFT VISUAL STUDIO 11.0\VC\INCLUDE\CERRNO
C:\PROGRAM FILES (X86)\MICROSOFT VISUAL STUDIO 11.0\VC\INCLUDE\ERRNO.H
C:\PROGRAM FILES (X86)\MICROSOFT VISUAL STUDIO 11.0\VC\INCLUDE\SHARE.H
C:\USERS\ALBERTO\DOCUMENTS\PROJECTS\C++ PROJECTS\HELPBROS\HELPBROS\HB_ENTITY.H
C:\PROGRAM FILES (X86)\MICROSOFT VISUAL STUDIO 11.0\VC\INCLUDE\VECTOR
C:\PROGRAM FILES (X86)\MICROSOFT VISUAL STUDIO 11.0\VC\INCLUDE\XMEMORY
C:\USERS\ALBERTO\DOCUMENTS\PROJECTS\C++ PROJECTS\HELPBROS\HELPBROS\HB_SURFACE.H
C:\USERS\ALBERTO\DOCUMENTS\PROJECTS\C++ PROJECTS\HELPBROS\HELPBROS\HB_ANIMATION.H
C:\USERS\ALBERTO\DOCUMENTS\PROJECTS\C++ PROJECTS\HELPBROS\HELPBROS\HB_TIMER.H
C:\USERS\ALBERTO\DOCUMENTS\PROJECTS\C++ PROJECTS\HELPBROS\HELPBROS\HB_CAMERA.H
C:\USERS\ALBERTO\DOCUMENTS\PROJECTS\C++ PROJECTS\HELPBROS\HELPBROS\HB_MAP.H
C:\USERS\ALBERTO\DOCUMENTS\PROJECTS\C++ PROJECTS\HELPBROS\HELPBROS\HB_TILE.H
C:\USERS\ALBERTO\DOCUMENTS\PROJECTS\C++ PROJECTS\HELPBROS\HELPBROS\HB_BACKGROUND.H
C:\USERS\ALBERTO\DOCUMENTS\PROJECTS\C++ PROJECTS\HELPBROS\HELPBROS\TMXPARSER\TMXLOADER.H
C:\PROGRAM FILES (X86)\MICROSOFT VISUAL STUDIO 11.0\VC\INCLUDE\IOSTREAM
C:\PROGRAM FILES (X86)\MICROSOFT VISUAL STUDIO 11.0\VC\INCLUDE\FSTREAM
C:\USERS\ALBERTO\DOCUMENTS\PROJECTS\C++ PROJECTS\HELPBROS\HELPBROS\TMXPARSER\BASE64.H
C:\USERS\ALBERTO\DOCUMENTS\PROJECTS\C++ PROJECTS\HELPBROS\HELPBROS\TMXPARSER\TINYXML\TINYXML.H
C:\PROGRAM FILES (X86)\MICROSOFT VISUAL STUDIO 11.0\VC\INCLUDE\ASSERT.H
C:\USERS\ALBERTO\DOCUMENTS\PROJECTS\C++ PROJECTS\HELPBROS\HELPBROS\TMXPARSER\TINYXML\TINYSTR.H
C:\USERS\ALBERTO\DOCUMENTS\PROJECTS\C++ PROJECTS\HELPBROS\HELPBROS\HB_ANIMATIONMANAGER.H
C:\PROGRAM FILES (X86)\MICROSOFT VISUAL STUDIO 11.0\VC\INCLUDE\CTIME
C:\PROGRAM FILES (X86)\MICROSOFT VISUAL STUDIO 11.0\VC\INCLUDE\TIME.H
C:\PROGRAM FILES (X86)\MICROSOFT VISUAL STUDIO 11.0\VC\INCLUDE\TIME.INL
C:\PROGRAM FILES (X86)\MICROSOFT VISUAL STUDIO 11.0\VC\BIN\1033\CLUI.DLL
C:\WINDOWS\GLOBALIZATION\SORTING\SORTDEFAULT.NLS
C:\WINDOWS\SYSTEM32\TZRES.DLL
^C:\USERS\ALBERTO\DOCUMENTS\PROJECTS\C++ PROJECTS\HELPBROS\HELPBROS\TMXPARSER\TINYXML\TINYXMLPARSER.CPP
^C:\USERS\ALBERTO\DOCUMENTS\PROJECTS\C++ PROJECTS\HELPBROS\HELPBROS\TMXPARSER\TINYXML\TINYXMLERROR.CPP
^C:\USERS\ALBERTO\DOCUMENTS\PROJECTS\C++ PROJECTS\HELPBROS\HELPBROS\TMXPARSER\TINYXML\TINYXML.CPP
^C:\USERS\ALBERTO\DOCUMENTS\PROJECTS\C++ PROJECTS\HELPBROS\HELPBROS\TMXPARSER\TINYXML\TINYSTR.CPP
^C:\USERS\ALBERTO\DOCUMENTS\PROJECTS\C++ PROJECTS\HELPBROS\HELPBROS\TMXPARSER\BASE64.CPP
^C:\USERS\ALBERTO\DOCUMENTS\PROJECTS\C++ PROJECTS\HELPBROS\HELPBROS\TMXPARSER\TMXLOADER.CPP
^C:\USERS\ALBERTO\DOCUMENTS\PROJECTS\C++ PROJECTS\HELPBROS\HELPBROS\MAIN.CPP
^C:\USERS\ALBERTO\DOCUMENTS\PROJECTS\C++ PROJECTS\HELPBROS\HELPBROS\HB_UPDATE.CPP
^C:\USERS\ALBERTO\DOCUMENTS\PROJECTS\C++ PROJECTS\HELPBROS\HELPBROS\HB_TITLE.CPP
^C:\USERS\ALBERTO\DOCUMENTS\PROJECTS\C++ PROJECTS\HELPBROS\HELPBROS\HB_TIMER.CPP
^C:\USERS\ALBERTO\DOCUMENTS\PROJECTS\C++ PROJECTS\HELPBROS\HELPBROS\HB_TILE.CPP
^C:\USERS\ALBERTO\DOCUMENTS\PROJECTS\C++ PROJECTS\HELPBROS\HELPBROS\HB_SURFACE.CPP
^C:\USERS\ALBERTO\DOCUMENTS\PROJECTS\C++ PROJECTS\HELPBROS\HELPBROS\HB_PLAYER.CPP
^C:\USERS\ALBERTO\DOCUMENTS\PROJECTS\C++ PROJECTS\HELPBROS\HELPBROS\HB_MAPCOLLISIONS.CPP
^C:\USERS\ALBERTO\DOCUMENTS\PROJECTS\C++ PROJECTS\HELPBROS\HELPBROS\HB_MAP.CPP
^C:\USERS\ALBERTO\DOCUMENTS\PROJECTS\C++ PROJECTS\HELPBROS\HELPBROS\HB_LOADFILES.CPP
^C:\USERS\ALBERTO\DOCUMENTS\PROJECTS\C++ PROJECTS\HELPBROS\HELPBROS\HB_INIT.CPP
^C:\USERS\ALBERTO\DOCUMENTS\PROJECTS\C++ PROJECTS\HELPBROS\HELPBROS\HB_INGAME.CPP
^C:\USERS\ALBERTO\DOCUMENTS\PROJECTS\C++ PROJECTS\HELPBROS\HELPBROS\HB_HUD.CPP
^C:\USERS\ALBERTO\DOCUMENTS\PROJECTS\C++ PROJECTS\HELPBROS\HELPBROS\HB_GAMESTATESMANAGER.CPP
^C:\USERS\ALBERTO\DOCUMENTS\PROJECTS\C++ PROJECTS\HELPBROS\HELPBROS\HB_GAMESTATE.CPP
^C:\USERS\ALBERTO\DOCUMENTS\PROJECTS\C++ PROJECTS\HELPBROS\HELPBROS\HB_FONT.CPP
^C:\USERS\ALBERTO\DOCUMENTS\PROJECTS\C++ PROJECTS\HELPBROS\HELPBROS\HB_EVENTS.CPP
^C:\USERS\ALBERTO\DOCUMENTS\PROJECTS\C++ PROJECTS\HELPBROS\HELPBROS\HB_ENTITYCOLLISIONS.CPP
^C:\USERS\ALBERTO\DOCUMENTS\PROJECTS\C++ PROJECTS\HELPBROS\HELPBROS\HB_ENTITY.CPP
^C:\USERS\ALBERTO\DOCUMENTS\PROJECTS\C++ PROJECTS\HELPBROS\HELPBROS\HB_ENTITIESMANAGER.CPP
^C:\USERS\ALBERTO\DOCUMENTS\PROJECTS\C++ PROJECTS\HELPBROS\HELPBROS\HB_ENEMYRED.CPP
^C:\USERS\ALBERTO\DOCUMENTS\PROJECTS\C++ PROJECTS\HELPBROS\HELPBROS\HB_ENEMIESMANAGER.CPP
^C:\USERS\ALBERTO\DOCUMENTS\PROJECTS\C++ PROJECTS\HELPBROS\HELPBROS\HB_DRAW.CPP
^C:\USERS\ALBERTO\DOCUMENTS\PROJECTS\C++ PROJECTS\HELPBROS\HELPBROS\HB_CREATEOBJECTS.CPP
^C:\USERS\ALBERTO\DOCUMENTS\PROJECTS\C++ PROJECTS\HELPBROS\HELPBROS\HB_CONSOLE.CPP
^C:\USERS\ALBERTO\DOCUMENTS\PROJECTS\C++ PROJECTS\HELPBROS\HELPBROS\HB_CLEANUP.CPP
^C:\USERS\ALBERTO\DOCUMENTS\PROJECTS\C++ PROJECTS\HELPBROS\HELPBROS\HB_CAMERA.CPP
^C:\USERS\ALBERTO\DOCUMENTS\PROJECTS\C++ PROJECTS\HELPBROS\HELPBROS\HB_BULLET.CPP
^C:\USERS\ALBERTO\DOCUMENTS\PROJECTS\C++ PROJECTS\HELPBROS\HELPBROS\HB_BACKGROUND.CPP
^C:\USERS\ALBERTO\DOCUMENTS\PROJECTS\C++ PROJECTS\HELPBROS\HELPBROS\HB_ANIMATIONMANAGER.CPP
^C:\USERS\ALBERTO\DOCUMENTS\PROJECTS\C++ PROJECTS\HELPBROS\HELPBROS\HB_ANIMATION.CPP
^C:\USERS\ALBERTO\DOCUMENTS\PROJECTS\C++ PROJECTS\HELPBROS\HELPBROS\HB.CPP
