^C:\USERS\ALBERTO\DOCUMENTS\PROJECTS\C++ PROJECTS\HELPBROS\HELPBROS\HB_ANIMATIONMANAGER.CPP
/c /ZI /nologo /W3 /WX- /Od /Oi /Oy- /D _MBCS /Gm- /EHsc /MD /GS /Gy /fp:precise /Zc:wchar_t /Zc:forScope /Fo"RELEASE\\" /Fd"RELEASE\VC110.PDB" /Gd /TP /analyze- C:\USERS\ALBERTO\DOCUMENTS\PROJECTS\C++ PROJECTS\HELPBROS\HELPBROS\HB_ANIMATIONMANAGER.CPP
^C:\USERS\ALBERTO\DOCUMENTS\PROJECTS\C++ PROJECTS\HELPBROS\HELPBROS\HB_BACKGROUND.CPP
/c /ZI /nologo /W3 /WX- /Od /Oi /Oy- /D _MBCS /Gm- /EHsc /MD /GS /Gy /fp:precise /Zc:wchar_t /Zc:forScope /Fo"RELEASE\\" /Fd"RELEASE\VC110.PDB" /Gd /TP /analyze- C:\USERS\ALBERTO\DOCUMENTS\PROJECTS\C++ PROJECTS\HELPBROS\HELPBROS\HB_BACKGROUND.CPP
^C:\USERS\ALBERTO\DOCUMENTS\PROJECTS\C++ PROJECTS\HELPBROS\HELPBROS\HB_BOLT.CPP
/c /ZI /nologo /W3 /WX- /Od /Oi /Oy- /D _MBCS /Gm- /EHsc /MD /GS /Gy /fp:precise /Zc:wchar_t /Zc:forScope /Fo"RELEASE\\" /Fd"RELEASE\VC110.PDB" /Gd /TP /analyze- C:\USERS\ALBERTO\DOCUMENTS\PROJECTS\C++ PROJECTS\HELPBROS\HELPBROS\HB_BOLT.CPP
^C:\USERS\ALBERTO\DOCUMENTS\PROJECTS\C++ PROJECTS\HELPBROS\HELPBROS\HB_BULLET.CPP
/c /ZI /nologo /W3 /WX- /Od /Oi /Oy- /D _MBCS /Gm- /EHsc /MD /GS /Gy /fp:precise /Zc:wchar_t /Zc:forScope /Fo"RELEASE\\" /Fd"RELEASE\VC110.PDB" /Gd /TP /analyze- C:\USERS\ALBERTO\DOCUMENTS\PROJECTS\C++ PROJECTS\HELPBROS\HELPBROS\HB_BULLET.CPP
^C:\USERS\ALBERTO\DOCUMENTS\PROJECTS\C++ PROJECTS\HELPBROS\HELPBROS\HB_CAMERA.CPP
/c /ZI /nologo /W3 /WX- /Od /Oi /Oy- /D _MBCS /Gm- /EHsc /MD /GS /Gy /fp:precise /Zc:wchar_t /Zc:forScope /Fo"RELEASE\\" /Fd"RELEASE\VC110.PDB" /Gd /TP /analyze- C:\USERS\ALBERTO\DOCUMENTS\PROJECTS\C++ PROJECTS\HELPBROS\HELPBROS\HB_CAMERA.CPP
^C:\USERS\ALBERTO\DOCUMENTS\PROJECTS\C++ PROJECTS\HELPBROS\HELPBROS\HB_CONSOLE.CPP
/c /ZI /nologo /W3 /WX- /Od /Oi /Oy- /D _MBCS /Gm- /EHsc /MD /GS /Gy /fp:precise /Zc:wchar_t /Zc:forScope /Fo"RELEASE\\" /Fd"RELEASE\VC110.PDB" /Gd /TP /analyze- C:\USERS\ALBERTO\DOCUMENTS\PROJECTS\C++ PROJECTS\HELPBROS\HELPBROS\HB_CONSOLE.CPP
^C:\USERS\ALBERTO\DOCUMENTS\PROJECTS\C++ PROJECTS\HELPBROS\HELPBROS\HB_CREATEOBJECTS.CPP
/c /ZI /nologo /W3 /WX- /Od /Oi /Oy- /D _MBCS /Gm- /EHsc /MD /GS /Gy /fp:precise /Zc:wchar_t /Zc:forScope /Fo"RELEASE\\" /Fd"RELEASE\VC110.PDB" /Gd /TP /analyze- C:\USERS\ALBERTO\DOCUMENTS\PROJECTS\C++ PROJECTS\HELPBROS\HELPBROS\HB_CREATEOBJECTS.CPP
^C:\USERS\ALBERTO\DOCUMENTS\PROJECTS\C++ PROJECTS\HELPBROS\HELPBROS\HB_ENEMIESMANAGER.CPP
/c /ZI /nologo /W3 /WX- /Od /Oi /Oy- /D _MBCS /Gm- /EHsc /MD /GS /Gy /fp:precise /Zc:wchar_t /Zc:forScope /Fo"RELEASE\\" /Fd"RELEASE\VC110.PDB" /Gd /TP /analyze- C:\USERS\ALBERTO\DOCUMENTS\PROJECTS\C++ PROJECTS\HELPBROS\HELPBROS\HB_ENEMIESMANAGER.CPP
^C:\USERS\ALBERTO\DOCUMENTS\PROJECTS\C++ PROJECTS\HELPBROS\HELPBROS\HB_ENEMYBOT.CPP
/c /ZI /nologo /W3 /WX- /Od /Oi /Oy- /D _MBCS /Gm- /EHsc /MD /GS /Gy /fp:precise /Zc:wchar_t /Zc:forScope /Fo"RELEASE\\" /Fd"RELEASE\VC110.PDB" /Gd /TP /analyze- C:\USERS\ALBERTO\DOCUMENTS\PROJECTS\C++ PROJECTS\HELPBROS\HELPBROS\HB_ENEMYBOT.CPP
^C:\USERS\ALBERTO\DOCUMENTS\PROJECTS\C++ PROJECTS\HELPBROS\HELPBROS\HB_ENEMYGREEN.CPP
/c /ZI /nologo /W3 /WX- /Od /Oi /Oy- /D _MBCS /Gm- /EHsc /MD /GS /Gy /fp:precise /Zc:wchar_t /Zc:forScope /Fo"RELEASE\\" /Fd"RELEASE\VC110.PDB" /Gd /TP /analyze- C:\USERS\ALBERTO\DOCUMENTS\PROJECTS\C++ PROJECTS\HELPBROS\HELPBROS\HB_ENEMYGREEN.CPP
^C:\USERS\ALBERTO\DOCUMENTS\PROJECTS\C++ PROJECTS\HELPBROS\HELPBROS\HB_ENEMYRED.CPP
/c /ZI /nologo /W3 /WX- /Od /Oi /Oy- /D _MBCS /Gm- /EHsc /MD /GS /Gy /fp:precise /Zc:wchar_t /Zc:forScope /Fo"RELEASE\\" /Fd"RELEASE\VC110.PDB" /Gd /TP /analyze- C:\USERS\ALBERTO\DOCUMENTS\PROJECTS\C++ PROJECTS\HELPBROS\HELPBROS\HB_ENEMYRED.CPP
^C:\USERS\ALBERTO\DOCUMENTS\PROJECTS\C++ PROJECTS\HELPBROS\HELPBROS\HB_ENTITIESMANAGER.CPP
/c /ZI /nologo /W3 /WX- /Od /Oi /Oy- /D _MBCS /Gm- /EHsc /MD /GS /Gy /fp:precise /Zc:wchar_t /Zc:forScope /Fo"RELEASE\\" /Fd"RELEASE\VC110.PDB" /Gd /TP /analyze- C:\USERS\ALBERTO\DOCUMENTS\PROJECTS\C++ PROJECTS\HELPBROS\HELPBROS\HB_ENTITIESMANAGER.CPP
^C:\USERS\ALBERTO\DOCUMENTS\PROJECTS\C++ PROJECTS\HELPBROS\HELPBROS\HB_ENTITY.CPP
/c /ZI /nologo /W3 /WX- /Od /Oi /Oy- /D _MBCS /Gm- /EHsc /MD /GS /Gy /fp:precise /Zc:wchar_t /Zc:forScope /Fo"RELEASE\\" /Fd"RELEASE\VC110.PDB" /Gd /TP /analyze- C:\USERS\ALBERTO\DOCUMENTS\PROJECTS\C++ PROJECTS\HELPBROS\HELPBROS\HB_ENTITY.CPP
^C:\USERS\ALBERTO\DOCUMENTS\PROJECTS\C++ PROJECTS\HELPBROS\HELPBROS\HB_ENTITYCOLLISIONS.CPP
/c /ZI /nologo /W3 /WX- /Od /Oi /Oy- /D _MBCS /Gm- /EHsc /MD /GS /Gy /fp:precise /Zc:wchar_t /Zc:forScope /Fo"RELEASE\\" /Fd"RELEASE\VC110.PDB" /Gd /TP /analyze- C:\USERS\ALBERTO\DOCUMENTS\PROJECTS\C++ PROJECTS\HELPBROS\HELPBROS\HB_ENTITYCOLLISIONS.CPP
^C:\USERS\ALBERTO\DOCUMENTS\PROJECTS\C++ PROJECTS\HELPBROS\HELPBROS\HB_FONT.CPP
/c /ZI /nologo /W3 /WX- /Od /Oi /Oy- /D _MBCS /Gm- /EHsc /MD /GS /Gy /fp:precise /Zc:wchar_t /Zc:forScope /Fo"RELEASE\\" /Fd"RELEASE\VC110.PDB" /Gd /TP /analyze- C:\USERS\ALBERTO\DOCUMENTS\PROJECTS\C++ PROJECTS\HELPBROS\HELPBROS\HB_FONT.CPP
^C:\USERS\ALBERTO\DOCUMENTS\PROJECTS\C++ PROJECTS\HELPBROS\HELPBROS\HB_GAMEOVER.CPP
/c /ZI /nologo /W3 /WX- /Od /Oi /Oy- /D _MBCS /Gm- /EHsc /MD /GS /Gy /fp:precise /Zc:wchar_t /Zc:forScope /Fo"RELEASE\\" /Fd"RELEASE\VC110.PDB" /Gd /TP /analyze- C:\USERS\ALBERTO\DOCUMENTS\PROJECTS\C++ PROJECTS\HELPBROS\HELPBROS\HB_GAMEOVER.CPP
^C:\USERS\ALBERTO\DOCUMENTS\PROJECTS\C++ PROJECTS\HELPBROS\HELPBROS\HB_GAMESTATE.CPP
/c /ZI /nologo /W3 /WX- /Od /Oi /Oy- /D _MBCS /Gm- /EHsc /MD /GS /Gy /fp:precise /Zc:wchar_t /Zc:forScope /Fo"RELEASE\\" /Fd"RELEASE\VC110.PDB" /Gd /TP /analyze- C:\USERS\ALBERTO\DOCUMENTS\PROJECTS\C++ PROJECTS\HELPBROS\HELPBROS\HB_GAMESTATE.CPP
^C:\USERS\ALBERTO\DOCUMENTS\PROJECTS\C++ PROJECTS\HELPBROS\HELPBROS\HB_GAMESTATESMANAGER.CPP
/c /ZI /nologo /W3 /WX- /Od /Oi /Oy- /D _MBCS /Gm- /EHsc /MD /GS /Gy /fp:precise /Zc:wchar_t /Zc:forScope /Fo"RELEASE\\" /Fd"RELEASE\VC110.PDB" /Gd /TP /analyze- C:\USERS\ALBERTO\DOCUMENTS\PROJECTS\C++ PROJECTS\HELPBROS\HELPBROS\HB_GAMESTATESMANAGER.CPP
^C:\USERS\ALBERTO\DOCUMENTS\PROJECTS\C++ PROJECTS\HELPBROS\HELPBROS\HB_HUD.CPP
/c /ZI /nologo /W3 /WX- /Od /Oi /Oy- /D _MBCS /Gm- /EHsc /MD /GS /Gy /fp:precise /Zc:wchar_t /Zc:forScope /Fo"RELEASE\\" /Fd"RELEASE\VC110.PDB" /Gd /TP /analyze- C:\USERS\ALBERTO\DOCUMENTS\PROJECTS\C++ PROJECTS\HELPBROS\HELPBROS\HB_HUD.CPP
^C:\USERS\ALBERTO\DOCUMENTS\PROJECTS\C++ PROJECTS\HELPBROS\HELPBROS\HB_INGAME.CPP
/c /ZI /nologo /W3 /WX- /Od /Oi /Oy- /D _MBCS /Gm- /EHsc /MD /GS /Gy /fp:precise /Zc:wchar_t /Zc:forScope /Fo"RELEASE\\" /Fd"RELEASE\VC110.PDB" /Gd /TP /analyze- C:\USERS\ALBERTO\DOCUMENTS\PROJECTS\C++ PROJECTS\HELPBROS\HELPBROS\HB_INGAME.CPP
^C:\USERS\ALBERTO\DOCUMENTS\PROJECTS\C++ PROJECTS\HELPBROS\HELPBROS\HB_LOADFILES.CPP
/c /ZI /nologo /W3 /WX- /Od /Oi /Oy- /D _MBCS /Gm- /EHsc /MD /GS /Gy /fp:precise /Zc:wchar_t /Zc:forScope /Fo"RELEASE\\" /Fd"RELEASE\VC110.PDB" /Gd /TP /analyze- C:\USERS\ALBERTO\DOCUMENTS\PROJECTS\C++ PROJECTS\HELPBROS\HELPBROS\HB_LOADFILES.CPP
^C:\USERS\ALBERTO\DOCUMENTS\PROJECTS\C++ PROJECTS\HELPBROS\HELPBROS\HB_MAINMENU.CPP
/c /ZI /nologo /W3 /WX- /Od /Oi /Oy- /D _MBCS /Gm- /EHsc /MD /GS /Gy /fp:precise /Zc:wchar_t /Zc:forScope /Fo"RELEASE\\" /Fd"RELEASE\VC110.PDB" /Gd /TP /analyze- C:\USERS\ALBERTO\DOCUMENTS\PROJECTS\C++ PROJECTS\HELPBROS\HELPBROS\HB_MAINMENU.CPP
^C:\USERS\ALBERTO\DOCUMENTS\PROJECTS\C++ PROJECTS\HELPBROS\HELPBROS\HB_MAP.CPP
/c /ZI /nologo /W3 /WX- /Od /Oi /Oy- /D _MBCS /Gm- /EHsc /MD /GS /Gy /fp:precise /Zc:wchar_t /Zc:forScope /Fo"RELEASE\\" /Fd"RELEASE\VC110.PDB" /Gd /TP /analyze- C:\USERS\ALBERTO\DOCUMENTS\PROJECTS\C++ PROJECTS\HELPBROS\HELPBROS\HB_MAP.CPP
^C:\USERS\ALBERTO\DOCUMENTS\PROJECTS\C++ PROJECTS\HELPBROS\HELPBROS\HB_MAPCOLLISIONS.CPP
/c /ZI /nologo /W3 /WX- /Od /Oi /Oy- /D _MBCS /Gm- /EHsc /MD /GS /Gy /fp:precise /Zc:wchar_t /Zc:forScope /Fo"RELEASE\\" /Fd"RELEASE\VC110.PDB" /Gd /TP /analyze- C:\USERS\ALBERTO\DOCUMENTS\PROJECTS\C++ PROJECTS\HELPBROS\HELPBROS\HB_MAPCOLLISIONS.CPP
^C:\USERS\ALBERTO\DOCUMENTS\PROJECTS\C++ PROJECTS\HELPBROS\HELPBROS\HB_PLAYER.CPP
/c /ZI /nologo /W3 /WX- /Od /Oi /Oy- /D _MBCS /Gm- /EHsc /MD /GS /Gy /fp:precise /Zc:wchar_t /Zc:forScope /Fo"RELEASE\\" /Fd"RELEASE\VC110.PDB" /Gd /TP /analyze- C:\USERS\ALBERTO\DOCUMENTS\PROJECTS\C++ PROJECTS\HELPBROS\HELPBROS\HB_PLAYER.CPP
^C:\USERS\ALBERTO\DOCUMENTS\PROJECTS\C++ PROJECTS\HELPBROS\HELPBROS\HB_SURFACE.CPP
/c /ZI /nologo /W3 /WX- /Od /Oi /Oy- /D _MBCS /Gm- /EHsc /MD /GS /Gy /fp:precise /Zc:wchar_t /Zc:forScope /Fo"RELEASE\\" /Fd"RELEASE\VC110.PDB" /Gd /TP /analyze- C:\USERS\ALBERTO\DOCUMENTS\PROJECTS\C++ PROJECTS\HELPBROS\HELPBROS\HB_SURFACE.CPP
^C:\USERS\ALBERTO\DOCUMENTS\PROJECTS\C++ PROJECTS\HELPBROS\HELPBROS\HB.CPP
/c /ZI /nologo /W3 /WX- /Od /Oi /Oy- /D _MBCS /Gm- /EHsc /MD /GS /Gy /fp:precise /Zc:wchar_t /Zc:forScope /Fo"RELEASE\\" /Fd"RELEASE\VC110.PDB" /Gd /TP /analyze- C:\USERS\ALBERTO\DOCUMENTS\PROJECTS\C++ PROJECTS\HELPBROS\HELPBROS\HB.CPP
^C:\USERS\ALBERTO\DOCUMENTS\PROJECTS\C++ PROJECTS\HELPBROS\HELPBROS\HB_CLEANUP.CPP
/c /ZI /nologo /W3 /WX- /Od /Oi /Oy- /D _MBCS /Gm- /EHsc /MD /GS /Gy /fp:precise /Zc:wchar_t /Zc:forScope /Fo"RELEASE\\" /Fd"RELEASE\VC110.PDB" /Gd /TP /analyze- C:\USERS\ALBERTO\DOCUMENTS\PROJECTS\C++ PROJECTS\HELPBROS\HELPBROS\HB_CLEANUP.CPP
^C:\USERS\ALBERTO\DOCUMENTS\PROJECTS\C++ PROJECTS\HELPBROS\HELPBROS\HB_DRAW.CPP
/c /ZI /nologo /W3 /WX- /Od /Oi /Oy- /D _MBCS /Gm- /EHsc /MD /GS /Gy /fp:precise /Zc:wchar_t /Zc:forScope /Fo"RELEASE\\" /Fd"RELEASE\VC110.PDB" /Gd /TP /analyze- C:\USERS\ALBERTO\DOCUMENTS\PROJECTS\C++ PROJECTS\HELPBROS\HELPBROS\HB_DRAW.CPP
^C:\USERS\ALBERTO\DOCUMENTS\PROJECTS\C++ PROJECTS\HELPBROS\HELPBROS\HB_EVENTS.CPP
/c /ZI /nologo /W3 /WX- /Od /Oi /Oy- /D _MBCS /Gm- /EHsc /MD /GS /Gy /fp:precise /Zc:wchar_t /Zc:forScope /Fo"RELEASE\\" /Fd"RELEASE\VC110.PDB" /Gd /TP /analyze- C:\USERS\ALBERTO\DOCUMENTS\PROJECTS\C++ PROJECTS\HELPBROS\HELPBROS\HB_EVENTS.CPP
^C:\USERS\ALBERTO\DOCUMENTS\PROJECTS\C++ PROJECTS\HELPBROS\HELPBROS\HB_INIT.CPP
/c /ZI /nologo /W3 /WX- /Od /Oi /Oy- /D _MBCS /Gm- /EHsc /MD /GS /Gy /fp:precise /Zc:wchar_t /Zc:forScope /Fo"RELEASE\\" /Fd"RELEASE\VC110.PDB" /Gd /TP /analyze- C:\USERS\ALBERTO\DOCUMENTS\PROJECTS\C++ PROJECTS\HELPBROS\HELPBROS\HB_INIT.CPP
^C:\USERS\ALBERTO\DOCUMENTS\PROJECTS\C++ PROJECTS\HELPBROS\HELPBROS\HB_TILE.CPP
/c /ZI /nologo /W3 /WX- /Od /Oi /Oy- /D _MBCS /Gm- /EHsc /MD /GS /Gy /fp:precise /Zc:wchar_t /Zc:forScope /Fo"RELEASE\\" /Fd"RELEASE\VC110.PDB" /Gd /TP /analyze- C:\USERS\ALBERTO\DOCUMENTS\PROJECTS\C++ PROJECTS\HELPBROS\HELPBROS\HB_TILE.CPP
^C:\USERS\ALBERTO\DOCUMENTS\PROJECTS\C++ PROJECTS\HELPBROS\HELPBROS\HB_TITLE.CPP
/c /ZI /nologo /W3 /WX- /Od /Oi /Oy- /D _MBCS /Gm- /EHsc /MD /GS /Gy /fp:precise /Zc:wchar_t /Zc:forScope /Fo"RELEASE\\" /Fd"RELEASE\VC110.PDB" /Gd /TP /analyze- C:\USERS\ALBERTO\DOCUMENTS\PROJECTS\C++ PROJECTS\HELPBROS\HELPBROS\HB_TITLE.CPP
^C:\USERS\ALBERTO\DOCUMENTS\PROJECTS\C++ PROJECTS\HELPBROS\HELPBROS\HB_UPDATE.CPP
/c /ZI /nologo /W3 /WX- /Od /Oi /Oy- /D _MBCS /Gm- /EHsc /MD /GS /Gy /fp:precise /Zc:wchar_t /Zc:forScope /Fo"RELEASE\\" /Fd"RELEASE\VC110.PDB" /Gd /TP /analyze- C:\USERS\ALBERTO\DOCUMENTS\PROJECTS\C++ PROJECTS\HELPBROS\HELPBROS\HB_UPDATE.CPP
^C:\USERS\ALBERTO\DOCUMENTS\PROJECTS\C++ PROJECTS\HELPBROS\HELPBROS\HB_ANIMATION.CPP
/c /ZI /nologo /W3 /WX- /Od /Oi /Oy- /D _MBCS /Gm- /EHsc /MD /GS /Gy /fp:precise /Zc:wchar_t /Zc:forScope /Fo"RELEASE\\" /Fd"RELEASE\VC110.PDB" /Gd /TP /analyze- C:\USERS\ALBERTO\DOCUMENTS\PROJECTS\C++ PROJECTS\HELPBROS\HELPBROS\HB_ANIMATION.CPP
^C:\USERS\ALBERTO\DOCUMENTS\PROJECTS\C++ PROJECTS\HELPBROS\HELPBROS\MAIN.CPP
/c /ZI /nologo /W3 /WX- /Od /Oi /Oy- /D _MBCS /Gm- /EHsc /MD /GS /Gy /fp:precise /Zc:wchar_t /Zc:forScope /Fo"RELEASE\\" /Fd"RELEASE\VC110.PDB" /Gd /TP /analyze- C:\USERS\ALBERTO\DOCUMENTS\PROJECTS\C++ PROJECTS\HELPBROS\HELPBROS\MAIN.CPP
^C:\USERS\ALBERTO\DOCUMENTS\PROJECTS\C++ PROJECTS\HELPBROS\HELPBROS\HB_TIMER.CPP
/c /ZI /nologo /W3 /WX- /Od /Oi /Oy- /D _MBCS /Gm- /EHsc /MD /GS /Gy /fp:precise /Zc:wchar_t /Zc:forScope /Fo"RELEASE\\" /Fd"RELEASE\VC110.PDB" /Gd /TP /analyze- C:\USERS\ALBERTO\DOCUMENTS\PROJECTS\C++ PROJECTS\HELPBROS\HELPBROS\HB_TIMER.CPP
^C:\USERS\ALBERTO\DOCUMENTS\PROJECTS\C++ PROJECTS\HELPBROS\HELPBROS\TMXPARSER\BASE64.CPP
/c /ZI /nologo /W3 /WX- /Od /Oi /Oy- /D _MBCS /Gm- /EHsc /MD /GS /Gy /fp:precise /Zc:wchar_t /Zc:forScope /Fo"RELEASE\\" /Fd"RELEASE\VC110.PDB" /Gd /TP /analyze- C:\USERS\ALBERTO\DOCUMENTS\PROJECTS\C++ PROJECTS\HELPBROS\HELPBROS\TMXPARSER\BASE64.CPP
^C:\USERS\ALBERTO\DOCUMENTS\PROJECTS\C++ PROJECTS\HELPBROS\HELPBROS\TMXPARSER\TINYXML\TINYSTR.CPP
/c /ZI /nologo /W3 /WX- /Od /Oi /Oy- /D _MBCS /Gm- /EHsc /MD /GS /Gy /fp:precise /Zc:wchar_t /Zc:forScope /Fo"RELEASE\\" /Fd"RELEASE\VC110.PDB" /Gd /TP /analyze- C:\USERS\ALBERTO\DOCUMENTS\PROJECTS\C++ PROJECTS\HELPBROS\HELPBROS\TMXPARSER\TINYXML\TINYSTR.CPP
^C:\USERS\ALBERTO\DOCUMENTS\PROJECTS\C++ PROJECTS\HELPBROS\HELPBROS\TMXPARSER\TINYXML\TINYXML.CPP
/c /ZI /nologo /W3 /WX- /Od /Oi /Oy- /D _MBCS /Gm- /EHsc /MD /GS /Gy /fp:precise /Zc:wchar_t /Zc:forScope /Fo"RELEASE\\" /Fd"RELEASE\VC110.PDB" /Gd /TP /analyze- C:\USERS\ALBERTO\DOCUMENTS\PROJECTS\C++ PROJECTS\HELPBROS\HELPBROS\TMXPARSER\TINYXML\TINYXML.CPP
^C:\USERS\ALBERTO\DOCUMENTS\PROJECTS\C++ PROJECTS\HELPBROS\HELPBROS\TMXPARSER\TINYXML\TINYXMLERROR.CPP
/c /ZI /nologo /W3 /WX- /Od /Oi /Oy- /D _MBCS /Gm- /EHsc /MD /GS /Gy /fp:precise /Zc:wchar_t /Zc:forScope /Fo"RELEASE\\" /Fd"RELEASE\VC110.PDB" /Gd /TP /analyze- C:\USERS\ALBERTO\DOCUMENTS\PROJECTS\C++ PROJECTS\HELPBROS\HELPBROS\TMXPARSER\TINYXML\TINYXMLERROR.CPP
^C:\USERS\ALBERTO\DOCUMENTS\PROJECTS\C++ PROJECTS\HELPBROS\HELPBROS\TMXPARSER\TINYXML\TINYXMLPARSER.CPP
/c /ZI /nologo /W3 /WX- /Od /Oi /Oy- /D _MBCS /Gm- /EHsc /MD /GS /Gy /fp:precise /Zc:wchar_t /Zc:forScope /Fo"RELEASE\\" /Fd"RELEASE\VC110.PDB" /Gd /TP /analyze- C:\USERS\ALBERTO\DOCUMENTS\PROJECTS\C++ PROJECTS\HELPBROS\HELPBROS\TMXPARSER\TINYXML\TINYXMLPARSER.CPP
^C:\USERS\ALBERTO\DOCUMENTS\PROJECTS\C++ PROJECTS\HELPBROS\HELPBROS\TMXPARSER\TMXLOADER.CPP
/c /ZI /nologo /W3 /WX- /Od /Oi /Oy- /D _MBCS /Gm- /EHsc /MD /GS /Gy /fp:precise /Zc:wchar_t /Zc:forScope /Fo"RELEASE\\" /Fd"RELEASE\VC110.PDB" /Gd /TP /analyze- C:\USERS\ALBERTO\DOCUMENTS\PROJECTS\C++ PROJECTS\HELPBROS\HELPBROS\TMXPARSER\TMXLOADER.CPP
